[
    "Algorithm",
    "Arduino",
    "AutoCAD",
    "CAD/CAM",
    "CATIA",
    "Circuit Design",
    "Civil Engineering",
    "Cryptography",
    "Data Mining",
    "Data Science",
    "Electrical Engineering",
    "Electronics",
    "Engineering",
    "GPS",
    "Machine Learning",
    "Matlab and Mathematica",
    "Mechanical Engineering",
    "Nanotechnology",
    "Physics",
    "Product Management",
    "Remote Sensing",
    "Robotics",
    "Scientific Research",
    "Solidworks",
    "Statistical Analysis",
    "Structural Engineering",
    "Telecommunications Engineering"
]